simulation/qsim/Ramses.msim.vcd
$comment
	File created using the following command:
		vcd file Ramses.msim.vcd -direction
$end
$date
	Mon Nov 22 00:21:52 2021
$end
$version
	ModelSim Version 10.1d
$end
$timescale
	1ps
$end
$scope module UAL_vlg_vec_tst $end
$var reg 16 ! A [15:0] $end
$var reg 16 " B [15:0] $end
$var reg 3 # controle [2:0] $end
$var wire 1 $ cout_teste $end
$var wire 1 % D [15] $end
$var wire 1 & D [14] $end
$var wire 1 ' D [13] $end
$var wire 1 ( D [12] $end
$var wire 1 ) D [11] $end
$var wire 1 * D [10] $end
$var wire 1 + D [9] $end
$var wire 1 , D [8] $end
$var wire 1 - D [7] $end
$var wire 1 . D [6] $end
$var wire 1 / D [5] $end
$var wire 1 0 D [4] $end
$var wire 1 1 D [3] $end
$var wire 1 2 D [2] $end
$var wire 1 3 D [1] $end
$var wire 1 4 D [0] $end
$var wire 1 5 ov_teste $end
$var wire 1 6 sampler $end
$scope module i1 $end
$var wire 1 7 gnd $end
$var wire 1 8 vcc $end
$var wire 1 9 unknown $end
$var tri1 1 : devclrn $end
$var tri1 1 ; devpor $end
$var tri1 1 < devoe $end
$var wire 1 = Add0~4_combout $end
$var wire 1 > Add0~8_combout $end
$var wire 1 ? Add0~10_combout $end
$var wire 1 @ Add0~16_combout $end
$var wire 1 A Add0~20_combout $end
$var wire 1 B Add0~23 $end
$var wire 1 C Add0~24_combout $end
$var wire 1 D Add0~25 $end
$var wire 1 E Add0~26_combout $end
$var wire 1 F Add0~27 $end
$var wire 1 G Add0~28_combout $end
$var wire 1 H Add0~29 $end
$var wire 1 I Add0~30_combout $end
$var wire 1 J SOMADOR_SUBTRATOR|G1:0:SCs|cout~1_combout $end
$var wire 1 K Mux13~0_combout $end
$var wire 1 L Mux13~1_combout $end
$var wire 1 M Mux12~0_combout $end
$var wire 1 N Mux11~0_combout $end
$var wire 1 O Mux11~1_combout $end
$var wire 1 P Mux8~0_combout $end
$var wire 1 Q SOMADOR_SUBTRATOR|G1:6:SCs|cout~0_combout $end
$var wire 1 R SOMADOR_SUBTRATOR|G1:7:SCs|s~0_combout $end
$var wire 1 S Mux7~0_combout $end
$var wire 1 T SOMADOR_SUBTRATOR|G1:7:SCs|cout~0_combout $end
$var wire 1 U Mux6~0_combout $end
$var wire 1 V SOMADOR_SUBTRATOR|G1:9:SCs|s~0_combout $end
$var wire 1 W Mux3~0_combout $end
$var wire 1 X Mux1~0_combout $end
$var wire 1 Y cout_teste~output_o $end
$var wire 1 Z ov_teste~output_o $end
$var wire 1 [ D[0]~output_o $end
$var wire 1 \ D[1]~output_o $end
$var wire 1 ] D[2]~output_o $end
$var wire 1 ^ D[3]~output_o $end
$var wire 1 _ D[4]~output_o $end
$var wire 1 ` D[5]~output_o $end
$var wire 1 a D[6]~output_o $end
$var wire 1 b D[7]~output_o $end
$var wire 1 c D[8]~output_o $end
$var wire 1 d D[9]~output_o $end
$var wire 1 e D[10]~output_o $end
$var wire 1 f D[11]~output_o $end
$var wire 1 g D[12]~output_o $end
$var wire 1 h D[13]~output_o $end
$var wire 1 i D[14]~output_o $end
$var wire 1 j D[15]~output_o $end
$var wire 1 k controle[2]~input_o $end
$var wire 1 l controle[0]~input_o $end
$var wire 1 m Mux15~2_combout $end
$var wire 1 n controle[1]~input_o $end
$var wire 1 o Mux15~3_combout $end
$var wire 1 p B[0]~input_o $end
$var wire 1 q A[0]~input_o $end
$var wire 1 r Mux15~0_combout $end
$var wire 1 s Mux15~1_combout $end
$var wire 1 t Mux15~4_combout $end
$var wire 1 u Mux15~5_combout $end
$var wire 1 v B[1]~input_o $end
$var wire 1 w A[1]~input_o $end
$var wire 1 x Mux0~4_combout $end
$var wire 1 y operacao~combout $end
$var wire 1 z SOMADOR_SUBTRATOR|G1:0:SCs|cout~0_combout $end
$var wire 1 { SOMADOR_SUBTRATOR|G1:1:SCs|s~combout $end
$var wire 1 | Mux14~0_combout $end
$var wire 1 } Add0~1_cout $end
$var wire 1 ~ Add0~2_combout $end
$var wire 1 !! Mux14~1_combout $end
$var wire 1 "! Mux14~2_combout $end
$var wire 1 #! Mux14~3_combout $end
$var wire 1 $! A[2]~input_o $end
$var wire 1 %! SOMADOR_SUBTRATOR|G1:1:SCs|cout~0_combout $end
$var wire 1 &! B[2]~input_o $end
$var wire 1 '! SOMADOR_SUBTRATOR|G1:2:SCs|s~0_combout $end
$var wire 1 (! Mux13~2_combout $end
$var wire 1 )! Mux13~3_combout $end
$var wire 1 *! B[3]~input_o $end
$var wire 1 +! Add0~3 $end
$var wire 1 ,! Add0~5 $end
$var wire 1 -! Add0~6_combout $end
$var wire 1 .! Mux12~1_combout $end
$var wire 1 /! A[3]~input_o $end
$var wire 1 0! SOMADOR_SUBTRATOR|G1:2:SCs|cout~0_combout $end
$var wire 1 1! SOMADOR_SUBTRATOR|G1:3:SCs|s~0_combout $end
$var wire 1 2! Mux12~2_combout $end
$var wire 1 3! Mux12~3_combout $end
$var wire 1 4! A[4]~input_o $end
$var wire 1 5! SOMADOR_SUBTRATOR|G1:3:SCs|cout~0_combout $end
$var wire 1 6! SOMADOR_SUBTRATOR|G1:4:SCs|s~0_combout $end
$var wire 1 7! Mux11~2_combout $end
$var wire 1 8! B[4]~input_o $end
$var wire 1 9! Mux11~3_combout $end
$var wire 1 :! A[5]~input_o $end
$var wire 1 ;! SOMADOR_SUBTRATOR|G1:4:SCs|cout~0_combout $end
$var wire 1 <! SOMADOR_SUBTRATOR|G1:5:SCs|s~0_combout $end
$var wire 1 =! Mux10~0_combout $end
$var wire 1 >! B[5]~input_o $end
$var wire 1 ?! Mux10~1_combout $end
$var wire 1 @! Mux10~2_combout $end
$var wire 1 A! Mux10~3_combout $end
$var wire 1 B! B[6]~input_o $end
$var wire 1 C! A[6]~input_o $end
$var wire 1 D! SOMADOR_SUBTRATOR|G1:5:SCs|cout~0_combout $end
$var wire 1 E! SOMADOR_SUBTRATOR|G1:6:SCs|s~0_combout $end
$var wire 1 F! Add0~7 $end
$var wire 1 G! Add0~9 $end
$var wire 1 H! Add0~11 $end
$var wire 1 I! Add0~12_combout $end
$var wire 1 J! Mux9~0_combout $end
$var wire 1 K! A[7]~input_o $end
$var wire 1 L! Mux9~1_combout $end
$var wire 1 M! Mux9~2_combout $end
$var wire 1 N! Mux9~3_combout $end
$var wire 1 O! B[7]~input_o $end
$var wire 1 P! Add0~13 $end
$var wire 1 Q! Add0~14_combout $end
$var wire 1 R! Mux8~1_combout $end
$var wire 1 S! Mux8~2_combout $end
$var wire 1 T! Mux8~3_combout $end
$var wire 1 U! B[8]~input_o $end
$var wire 1 V! A[8]~input_o $end
$var wire 1 W! SOMADOR_SUBTRATOR|G1:8:SCs|s~0_combout $end
$var wire 1 X! A[9]~input_o $end
$var wire 1 Y! Mux7~1_combout $end
$var wire 1 Z! Mux7~2_combout $end
$var wire 1 [! Mux7~3_combout $end
$var wire 1 \! B[9]~input_o $end
$var wire 1 ]! Add0~15 $end
$var wire 1 ^! Add0~17 $end
$var wire 1 _! Add0~18_combout $end
$var wire 1 `! Mux6~1_combout $end
$var wire 1 a! Mux6~2_combout $end
$var wire 1 b! Mux6~3_combout $end
$var wire 1 c! SOMADOR_SUBTRATOR|G1:8:SCs|cout~0_combout $end
$var wire 1 d! SOMADOR_SUBTRATOR|G1:9:SCs|cout~0_combout $end
$var wire 1 e! A[10]~input_o $end
$var wire 1 f! B[10]~input_o $end
$var wire 1 g! SOMADOR_SUBTRATOR|G1:10:SCs|s~0_combout $end
$var wire 1 h! A[11]~input_o $end
$var wire 1 i! Mux5~0_combout $end
$var wire 1 j! Mux5~1_combout $end
$var wire 1 k! Mux5~2_combout $end
$var wire 1 l! Mux5~3_combout $end
$var wire 1 m! B[11]~input_o $end
$var wire 1 n! SOMADOR_SUBTRATOR|G1:10:SCs|cout~0_combout $end
$var wire 1 o! SOMADOR_SUBTRATOR|G1:11:SCs|s~0_combout $end
$var wire 1 p! A[12]~input_o $end
$var wire 1 q! Mux4~0_combout $end
$var wire 1 r! Add0~19 $end
$var wire 1 s! Add0~21 $end
$var wire 1 t! Add0~22_combout $end
$var wire 1 u! Mux4~1_combout $end
$var wire 1 v! Mux4~2_combout $end
$var wire 1 w! Mux4~3_combout $end
$var wire 1 x! B[12]~input_o $end
$var wire 1 y! SOMADOR_SUBTRATOR|G1:11:SCs|cout~0_combout $end
$var wire 1 z! SOMADOR_SUBTRATOR|G1:12:SCs|s~0_combout $end
$var wire 1 {! A[13]~input_o $end
$var wire 1 |! Mux3~1_combout $end
$var wire 1 }! Mux3~2_combout $end
$var wire 1 ~! Mux3~3_combout $end
$var wire 1 !" A[14]~input_o $end
$var wire 1 "" Mux2~0_combout $end
$var wire 1 #" B[13]~input_o $end
$var wire 1 $" Mux2~1_combout $end
$var wire 1 %" SOMADOR_SUBTRATOR|G1:12:SCs|cout~0_combout $end
$var wire 1 &" SOMADOR_SUBTRATOR|G1:13:SCs|s~0_combout $end
$var wire 1 '" Mux2~2_combout $end
$var wire 1 (" Mux2~3_combout $end
$var wire 1 )" B[14]~input_o $end
$var wire 1 *" A[15]~input_o $end
$var wire 1 +" Mux1~1_combout $end
$var wire 1 ," SOMADOR_SUBTRATOR|G1:13:SCs|cout~0_combout $end
$var wire 1 -" SOMADOR_SUBTRATOR|G1:14:SCs|s~0_combout $end
$var wire 1 ." Mux1~2_combout $end
$var wire 1 /" Mux1~3_combout $end
$var wire 1 0" Mux0~2_combout $end
$var wire 1 1" B[15]~input_o $end
$var wire 1 2" SOMADOR_SUBTRATOR|G1:14:SCs|cout~0_combout $end
$var wire 1 3" SOMADOR_SUBTRATOR|G1:15:SCs|s~0_combout $end
$var wire 1 4" Mux0~0_combout $end
$var wire 1 5" Mux0~1_combout $end
$var wire 1 6" Mux0~3_combout $end
$var wire 1 7" SOMADOR_SUBTRATOR|aux_b [15] $end
$var wire 1 8" SOMADOR_SUBTRATOR|aux_b [14] $end
$var wire 1 9" SOMADOR_SUBTRATOR|aux_b [13] $end
$var wire 1 :" SOMADOR_SUBTRATOR|aux_b [12] $end
$var wire 1 ;" SOMADOR_SUBTRATOR|aux_b [11] $end
$var wire 1 <" SOMADOR_SUBTRATOR|aux_b [10] $end
$var wire 1 =" SOMADOR_SUBTRATOR|aux_b [9] $end
$var wire 1 >" SOMADOR_SUBTRATOR|aux_b [8] $end
$var wire 1 ?" SOMADOR_SUBTRATOR|aux_b [7] $end
$var wire 1 @" SOMADOR_SUBTRATOR|aux_b [6] $end
$var wire 1 A" SOMADOR_SUBTRATOR|aux_b [5] $end
$var wire 1 B" SOMADOR_SUBTRATOR|aux_b [4] $end
$var wire 1 C" SOMADOR_SUBTRATOR|aux_b [3] $end
$var wire 1 D" SOMADOR_SUBTRATOR|aux_b [2] $end
$var wire 1 E" SOMADOR_SUBTRATOR|aux_b [1] $end
$var wire 1 F" SOMADOR_SUBTRATOR|aux_b [0] $end
$upscope $end
$upscope $end
$enddefinitions $end
#0
$dumpvars
b1000101011100 !
b110001010000111 "
b1 #
1h
0i
1j
0k
1l
0m
0n
0o
1p
0q
1r
0s
1t
1u
1v
0w
1x
1y
0z
0{
0|
1}
0~
0!!
0"!
0#!
1$!
0%!
1&!
1'!
1(!
1)!
0*!
0+!
0,!
0-!
0.!
1/!
00!
01!
02!
03!
14!
15!
16!
17!
08!
19!
0:!
1;!
0<!
0=!
0>!
1?!
0@!
0A!
0B!
1C!
1D!
1E!
0$
14
03
12
01
10
0/
1.
1-
0,
1+
1*
1)
0(
1'
0&
1%
05
x6
07
18
x9
1:
1;
1<
1=
0>
1?
0@
1A
1B
0C
0D
1E
1F
1G
0H
1I
0J
1K
1L
0M
0N
0O
0P
1Q
1R
0S
0T
0U
1V
0W
1X
0Y
0Z
1[
0\
1]
0^
1_
0`
1a
1b
0c
1d
1e
1f
0g
1F!
0G!
1H!
0I!
0J!
0K!
0L!
1M!
1N!
1O!
0P!
1Q!
1R!
1S!
1T!
0U!
1V!
0W!
0X!
0Y!
0Z!
0[!
1\!
1]!
0^!
1_!
1`!
1a!
1b!
1c!
0d!
0e!
0f!
1g!
0h!
1i!
1j!
1k!
1l!
0m!
0n!
1o!
1p!
0q!
1r!
0s!
1t!
1u!
1v!
1w!
0x!
0y!
0z!
0{!
0|!
0}!
0~!
0!"
0""
1#"
1$"
1%"
1&"
1'"
1("
1)"
0*"
1+"
0,"
0-"
0."
0/"
10"
01"
02"
13"
04"
15"
16"
zF"
0E"
zD"
zC"
zB"
zA"
z@"
z?"
z>"
z="
z<"
z;"
z:"
z9"
z8"
z7"
$end
#60000
b101000101011100 !
b111000101011100 !
b110000101011100 !
b110010101011100 !
b110010001011100 !
b110010000011100 !
b110010000011000 !
b110010000011010 !
b110010000011011 !
b1110001010000111 "
b1100001010000111 "
b1101001010000111 "
b1101101010000111 "
b1101100010000111 "
b1101100000000111 "
b1101100001000111 "
b1101100001000011 "
b1101100001000010 "
0p
0&!
1B!
0O!
0\!
1m!
1x!
0#"
11"
1q
1w
0$!
0C!
0V!
1e!
0p!
1{!
1!"
06
1z
0t
1J
0Q
1T
0R
1d!
0V
0o!
0%"
1,"
14"
03"
0}
0r
1+!
1~
1{
1,!
0=
1I!
0c!
1W!
1@
1n!
0g!
0A
1C
0E
1-"
0G
0u
1%!
0{
0T
1R
1c!
0W!
0S!
1g!
0a!
0v!
0&"
12"
0-"
05"
0~
1s
0,!
1=
1!!
1"!
1-!
0K
1J!
0d!
1V
1Z!
1S
1o!
0k!
0i!
1W
0$"
1."
0X
0[
04
1u
10!
0'!
0"!
0c!
1W!
1S!
1d!
0V
0Z!
1k!
0'"
13"
0."
0!!
0-!
1K
1.!
0L
1L!
0g!
1a!
1Y!
1v!
0j!
1|!
0+"
1[
14
0T!
0b!
0w!
06"
1#!
1[!
0l!
1/"
11!
0(!
0d!
1V
1Z!
1g!
0a!
15"
0.!
1L
0k!
0b
0d
0f
0j
1\
1c
0e
1i
0-
0+
0)
0%
13
1,
0*
1&
0#!
1T!
0[!
1l!
0("
0/"
1b!
1w!
12!
0g!
1a!
1k!
0\
1b
0c
1e
0h
0i
1d
1f
03
1-
0,
1*
0'
0&
1+
1)
0)!
1[!
0b!
16"
0l!
0k!
0]
1c
0d
1j
0e
02
1,
0+
1%
0*
13!
1b!
1l!
1^
1d
1e
11
1+
1*
0l!
0e
0*
#90000
b101 #
b100 #
0l
1k
16
04"
0u!
1q!
0`!
0R!
0?!
1=!
0y
1r
1m
1U
1P
05"
0x
0v!
1u!
0a!
0S!
1?!
03"
1-"
0,"
1&"
1z!
1y!
0o!
0n!
1g!
0W!
0E!
0D!
1<!
06!
01!
00!
1'!
1E"
0z
0V
0R
1Q
0J
0s
1}!
07!
02!
1(!
1t
1`!
1R!
0u
1v!
1@!
0-"
1%"
0z!
0y!
1o!
1E!
0Q
05!
11!
1a!
1S!
1R
0t
0[
04
0w!
0b!
0T!
1~!
09!
03!
1)!
1u
1,"
0&"
0%"
1z!
0R
0;!
16!
0f
0d
0b
1g
0_
0^
1]
1[
0)
0+
0-
1(
00
01
12
14
1w!
1A!
1b!
1T!
0u
1-"
0,"
1&"
0<!
1f
1`
1d
1b
0[
1)
1/
1+
1-
04
0-"
#120000
b1110010000011011 !
b1110110000011011 !
b1110111000011011 !
b1001100001000010 "
b1001110001000010 "
b1001110101000010 "
b1001110101010010 "
b1001110101011010 "
b1001110101011000 "
b1010111000011011 !
b1011111000011011 !
b1011101000011011 !
b1011101100011011 !
b1011101100011001 !
b1011101100011000 !
b1011110101011000 "
b1011010101011000 "
b1011011101011000 "
b1011011111011000 "
0v
1*!
18!
1O!
1U!
1\!
1f!
0m!
1#"
0)"
0q
0w
1V!
1X!
0e!
1h!
1p!
0!"
1*"
06
0E"
15!
01!
1;!
06!
1R
1c!
1d!
1,"
0&"
02"
1}
0r
0%!
1~
1|
1{
0S
0@
0_!
0U
1i!
1A
0q!
0t!
1%"
0z!
0W
0C
1X
1G
13"
00"
0I
0{
16!
1<!
1V
1n!
0g!
1-"
03"
0+!
0~
1s
0'!
1!!
0Y!
0`!
1j!
0u!
1&"
0|!
1+"
06"
1"!
0a!
1y!
0o!
1k!
1."
1,!
0=
1t
0Z!
0v!
0}!
0j
0%
1z!
1-!
1#!
0b!
1l!
1/"
1u
0[!
0w!
0~!
1\
0d
1e
1i
1[
0c
0f
0g
13
0+
1*
1&
14
0,
0)
0(
#180000
b1011101100111000 !
b1011101100101000 !
b1011101100100000 !
b110 #
b1001101100100000 !
b1001101101100000 !
b11011111011000 "
b10011111011000 "
b10011110011000 "
b10011110011100 "
b10011110011101 "
b10 #
b11 #
b1001100101100000 !
b110011110011101 "
b110011010011101 "
b110011010011111 "
b1001100001100000 !
b110010010011111 "
b110010000011111 "
1p
1v
1&!
0B!
0O!
0U!
0\!
0x!
1)"
01"
1l
1n
0k
0/!
04!
1:!
1C!
0V!
0X!
0{!
16
1E"
1'!
0L!
0R!
0R
0c!
0d!
0z!
12"
0-"
14"
13"
1""
1q!
0?!
1.!
1W
1U
1S
1N
1M
1o
1O
05!
11!
0F!
0-!
06!
1>
1D!
0<!
0?
0I!
1@
1_!
0&"
1E
1{
0V
0n!
1g!
1}!
03"
15"
1$"
12!
1'"
1v!
1a!
1Z!
17!
0;!
16!
1G!
0>
0E!
1Q
0T!
0y!
1o!
0D!
1<!
1?
1R
0b
0-
1~!
16"
13!
1("
1w!
19!
0%"
1z!
1E!
0Q
1g
1j
1^
1h
1f
1_
1(
1%
11
1'
1)
10
0,"
1&"
0R
02"
1-"
13"
#240000
b110010000111111 "
b1001100001100100 !
b1100001100100 !
b110010000110111 "
b100001100100 !
b100001100110 !
b100001100111 !
b110110000110111 "
b1110110000110111 "
b101001100111 !
b1110110000110101 "
b101101100111 !
b1110111000110101 "
b1110111010110101 "
1q
1w
1$!
1V!
1X!
0p!
0*"
0v
0*!
1>!
1O!
1\!
1m!
11"
06
0}
1J
1%!
1+!
1~
0{
10!
0'!
0,!
1=
1W!
0@
1d!
0_!
0z!
1C
1I
0!!
0E"
01!
0.!
1D!
1?!
0<!
1R!
1R
1`!
1y!
1u!
0o!
1[!
1b!
0~!
03!
1T!
0~
1'!
0=
11!
1F!
1-!
1n!
0g!
0E!
1Q
1z!
1c
1d
0g
0^
1b
1,
1+
0(
01
1-
0G!
1>
1o!
1T
0R
0?
1c!
0W!
1V
#270000
b10 #
0l
16
04"
0""
0q!
0i!
0J!
1.!
1!!
1r
0m
0X
0W
0U
0S
0N
0M
0K
05"
0$"
0u!
02!
0"!
0."
0'"
0}!
0v!
0k!
0a!
0Z!
0S!
0M!
0@!
07!
0(!
0+"
0`!
1Y!
0.!
0L
06"
0#!
0/"
0("
0l!
0[!
0T!
0N!
09!
0j
0\
0i
0h
0e
0c
0b
0a
0_
0%
03
0&
0'
0*
0,
0-
0.
00
#300000
b1101100111 !
b1110101010110101 "
b11101100111 !
b1100101010110101 "
b11101000111 !
b11101010111 !
b10011101010111 !
b1101101010110101 "
b1101101011110101 "
b1101101011110001 "
b1101101011110000 "
b1101101111110000 "
b1101101111010000 "
b10011101010011 !
b11011101010011 !
b11011101010001 !
b11011101010000 !
b11011001010000 !
b1101101101010000 "
0p
0&!
0>!
1B!
0O!
1U!
0f!
1x!
0#"
0q
0w
0$!
14!
0:!
0V!
1e!
0h!
1p!
1{!
06
0t
0s
0J
00!
0D!
1E!
0T
1R
0j!
1%"
1|!
1}
0%!
1~
0|
1{
1=
1;!
06!
1M
0>
0O
1?
0P
1@
1U
0A
1q!
0o!
1t!
0C
0E
0)!
0A!
1N!
1~!
0u
19!
0w!
0{
01!
0E!
0c!
1W!
1,"
0&"
0+!
0~
0'!
0!!
1<!
1.!
0R!
1`!
1u!
0]
0`
1a
1g
0[
1_
0f
02
0/
1.
1(
04
10
0)
0V
12"
0-"
1,!
0=
03"
0F!
0-!
1>
#360000
b0 #
b1001101101010000 "
b1001101101010010 "
b1001100101010010 "
b1001110101010010 "
b11011001110000 !
b1011001110000 !
b1000110101010010 "
b1000110100010010 "
b1000110100010110 "
b1000110000010110 "
b11001110000 !
1:!
0p!
0{!
1v
1&!
0B!
0U!
0\!
1f!
0x!
0)"
0n
16
1D!
0=!
0<!
0?
0%"
1W
1C
0,"
1&"
1""
0|!
1E
1E"
1'!
1E!
0Q
0Y!
0W!
0d!
1V
1g!
02"
1-"
10"
1|
1x
0r
0o
1X
0U
1S
1P
1K
0~!
0N!
0b!
1l!
0E!
1Q
0?!
0&"
1|!
0-"
1'"
1$"
1}!
1{
1(!
1M!
0R
0g!
1a!
1k!
13"
1."
1!!
1s
1S!
1+"
0`!
1Y!
1R!
1L
0g
0a
0d
1e
0(
0.
0+
1*
0l!
09!
0M!
1R
0'"
0."
1"!
0S!
0k!
15"
0e
0_
0*
00
1("
1~!
1)!
1N!
1b!
1l!
1/"
1T!
1S!
1h
1g
1]
1a
1d
1e
1i
1b
1'
1(
12
1.
1+
1*
1&
1-
0N!
0("
0/"
1#!
0T!
0l!
16"
0a
0h
0i
1\
0b
0e
1j
0.
0'
0&
13
0-
0*
1%
1T!
1b
1-
#420000
b11011110000 !
b1000110000000110 "
b11011111000 !
b1000011011111000 !
b1000110000001110 "
b1000011011101000 !
b1000110000001111 "
b1000110000101111 "
b1000011011101100 !
b1000011011101110 !
b1000011011101111 !
b1000011111101111 !
b1000110010101111 "
b1100110010101111 "
b1100111010101111 "
b1100101010101111 "
b1000011111001111 !
b1010011111001111 !
b1101101010101111 "
b1101101010101011 "
b1101101110101011 "
1p
0&!
1*!
08!
1>!
1O!
1U!
1\!
0f!
1x!
1)"
1q
1w
1$!
1/!
04!
0:!
1K!
1V!
1{!
1*"
06
1t
1J
15!
0;!
1T
1c!
1d!
0V
0n!
1g!
1%"
0z!
1-"
0}
1r
1%!
1+!
1~
0|
0{
0K
0,!
1=
1F!
1-!
0M
1N
1G!
0>
1=!
1?
0Q!
0P
0S
0@
1&"
0""
0E
14"
03"
00"
0I
1u
1{
16!
0D!
1<!
1W!
1V
1n!
0g!
0a!
0y!
1o!
1k!
1,"
0&"
0}!
1."
0~
0s
10!
0'!
0=
0!!
0"!
0L
0-!
0G!
1>
0.!
1O
0H!
0?
1?!
0R!
0Y!
1'"
0$"
05"
1[
14
0u
1"!
17!
1E!
0Q
1@!
1Z!
1a!
1y!
0o!
0k!
0%"
1z!
1v!
12"
0-"
0'"
11!
0(!
1H!
1?
1I!
0[
04
0b!
1l!
0~!
1/"
0#!
1("
06"
1M!
0R
1%"
0z!
0v!
0,"
1&"
1}!
13"
0."
12!
0I!
0d
1e
0g
1i
0\
1h
0j
0+
1*
0(
1&
03
1'
0%
1#!
19!
1A!
1[!
1b!
0l!
1w!
0("
0)!
0S!
1,"
0&"
0}!
02"
1-"
1'"
15"
1\
1_
1`
1c
1d
0e
1f
0h
0]
13
10
1/
1,
1+
0*
1)
0'
02
1N!
0w!
1~!
0/"
13!
12"
0-"
0'"
03"
1."
1a
0f
1g
0i
1^
1.
0)
1(
0&
11
0T!
0~!
1("
16"
13"
0."
05"
0b
0g
1h
1j
0-
0(
1'
1%
0("
1/"
15"
0h
1i
0'
1&
0/"
06"
0i
0j
0&
0%
16"
1j
1%
#450000
b100 #
1k
16
05"
04"
0x
1m
1."
1}!
1v!
0a!
0Z!
0M!
02!
0"!
0t
06"
1u
0j
1[
0%
14
1/"
1~!
1w!
0b!
0[!
0N!
03!
0#!
0u
1i
1g
1f
0d
0c
0a
0^
0\
0[
1&
1(
1)
0+
0,
0.
01
03
04
#480000
b1010011110001111 !
b1101001110101011 "
b1010010110001111 !
b1111001110101011 "
b1111001111101011 "
b1011010110001111 !
b1111001111111011 "
b1011010110000111 !
b11010110000111 !
b1111001111011011 "
b11010010000111 !
b1111000111011011 "
b11010010100111 !
b1010010100111 !
b1110000111011011 "
b1110000111011111 "
1&!
18!
0>!
1B!
0\!
0m!
0x!
1#"
0/!
1:!
0C!
0V!
0X!
1p!
0{!
0*"
06
1'!
1;!
06!
0d!
0y!
1o!
01!
1-!
1M
0=!
0?
1J!
1I!
0W!
1S
1@
1_!
1U
0W
0C
1""
1E
03"
10"
1I
1D!
0<!
0n!
1g!
0%"
1z!
1.!
0?!
1L!
1Y!
1`!
0|!
1$"
16"
0E!
1Q
0@!
0o!
0,"
1&"
0}!
12!
1M!
1Z!
1a!
1'"
1j
1%
1R
02"
1-"
0A!
0~!
13!
1N!
1[!
1b!
1("
13"
0`
0g
1^
1a
1c
1d
1h
0/
0(
11
1.
1,
1+
1'
#540000
b101 #
b1110000111011110 "
b1010010100101 !
b1010010100100 !
b1110000101011110 "
b1010000101011110 "
b1010010101011110 "
b1 #
b1010011100100 !
b1011011100100 !
b1000010101011110 "
b1000010100011110 "
b11011100100 !
b11011101100 !
b1000011011101100 !
b1000011111101100 !
b1000011100011110 "
b1010011111101100 !
b1000011100011010 "
0q
0w
1/!
1C!
1V!
1X!
0p!
1{!
1*"
0p
0&!
0B!
0O!
1\!
1f!
0#"
0)"
1l
0k
16
1}
0J
1~
0{
11!
0-!
0M
0I!
1W!
0@
1d!
0_!
0U
0z!
0q!
1C
0""
0E
14"
03"
0I
0'!
0R
1n!
0g!
0$"
0-"
0u!
0m
15"
1x
06"
0+!
0~
0%!
1{
1!!
0.!
0J!
0S
1g!
0`!
1u!
1W
05"
00"
1o!
0."
0v!
0M!
07!
1y
0j
0%
16"
1=
0!!
1"!
0L!
0Y!
1k!
1v!
1|!
13"
1-"
1,"
0&"
1z!
1y!
0o!
0g!
0W!
1E!
1<!
0;!
16!
01!
0E"
1z
0V
1R
1j
1%
06"
0/"
0w!
0N!
09!
1K
1M!
0Z!
1}!
15"
1."
12"
0-"
0'"
1%"
0z!
0v!
0k!
1@!
0<!
17!
02!
0a!
1S!
0j
0i
0f
0a
0_
0%
0&
0)
0.
00
1#!
1l!
1w!
1L
03"
0."
1&"
0}!
0@!
1\
1e
1f
13
1*
1)
1N!
0[!
1~!
16"
1/"
0("
0w!
0l!
1A!
19!
03!
0b!
1T!
05"
1'"
1a
0c
1g
1j
1i
0h
0f
0e
1`
1_
0^
0d
1b
1.
0,
1(
1%
1&
0'
0)
0*
1/
10
01
0+
1-
0/"
0~!
0A!
0i
0g
0`
0&
0(
0/
06"
1("
0j
1h
0%
1'
#600000
b11100011010 "
b1010111111101100 !
b11100011000 "
b11100010000 "
b1010111111101000 !
b11000010000 "
b1010111111001000 !
b1011000010000 "
b1011000010001 "
b1010111111001010 !
b1010111111001011 !
b1001000010001 "
b1010111110001011 !
b1010110110001011 !
b1001001010001 "
b1010110110000011 !
b10110110000011 !
b1000001010001 "
1q
1w
0$!
0/!
0:!
0C!
0X!
1h!
0*"
1p
0v
0*!
1B!
0U!
0\!
0f!
1x!
01"
06
0}
0r
1J
1%!
1+!
1~
0{
00!
1'!
1,!
0=
1-!
0D!
1<!
1?
1I!
0Q
1_!
1o!
0t!
04"
1I
0z
1t
1E"
1W!
1g!
0%"
1z!
1u
0~
1s
1{
10!
0'!
0,!
1=
1!!
0"!
05!
11!
1(!
0F!
0-!
0K
1.!
0E!
1@!
1?!
1J!
0R
1`!
1v!
0u!
10"
1Z!
1k!
0&"
1}!
1[
14
0u
0!!
1"!
15!
01!
0(!
1F!
1-!
1K
06!
12!
1G!
0>
0.!
0L
0M!
1L!
0S!
0'"
0[
04
0#!
1)!
1A!
1w!
1[!
1l!
1~!
16!
02!
0G!
1>
1.!
1L
07!
0H!
0?
0N
0\
1]
1`
1f
1c
1e
1g
03
12
1/
1)
1,
1*
1(
1#!
0)!
13!
0N!
0T!
0("
17!
1H!
1?
1N
1P!
0I!
0?!
0O
1\
0]
1^
0a
0b
0h
13
02
11
0.
0-
0'
03!
09!
0P!
1I!
1?!
1O
1Q!
0J!
0^
0_
01
00
19!
0Q!
1J!
1R!
0L!
1_
10
0R!
1L!
#630000
b0 #
b100 #
0l
1k
16
0`!
0?!
1=!
0.!
0y
1r
1m
1U
1M
0x
16"
0@!
1?!
13"
02"
1-"
0,"
1&"
1%"
0z!
0o!
0g!
0d!
0W!
1E!
0<!
1;!
06!
05!
11!
00!
1'!
0E"
1V
0T
1R
0s
1."
0v!
0k!
0Z!
1M!
1(!
0"!
1`!
1.!
1j
1%
1u
1@!
03"
0-"
1,"
0&"
0n!
1g!
1<!
0;!
16!
12!
01!
0{
1a!
0c!
1W!
0t
1[
14
0A!
1/"
0w!
0l!
0[!
1N!
1)!
0#!
1-"
0y!
1o!
0<!
0V
0`
1i
0f
0e
0c
1a
1]
0\
0/
1&
0)
0*
0,
1.
12
03
1A!
13!
1b!
0u
0%"
1z!
1`
1^
1d
0[
1/
11
1+
04
0,"
1&"
0-"
